"Id","Estado"
"t1","Palabra"
"t2","Palabra"
"t3","Palabra"
"t4","Palabra"
"t5","Palabra"
"t6","Palabra"
"t7","Palabra"
"t8","Palabra"
"t9","Palabra"
"t10","Palabra"
"t11","Palabra"
"t12","Palabra"
"t13","Palabra"
"t14","Palabra"
"t15","Palabra"
"t16","Palabra"
"t17","Palabra"
"t18","Palabra"
"t19","Palabra"
"t20","Palabra"
"t21","Palabra"
"t22","Palabra"
"t23","Palabra"
"t24","Palabra"
"t25","Palabra"
"t26","Palabra"
"t27","Palabra"
"t28","Palabra"
"t29","Palabra"
"t30","Palabra"
"t31","Palabra"
"t32","Palabra"
"t33","Palabra"
"t34","Palabra"
"t35","Palabra"
"t36","Palabra"
"t37","Palabra"
"t38","Palabra"
"t39","Palabra"
"t40","Palabra"
"t41","Palabra"
"t42","Palabra"
"t43","Palabra"
"t44","Palabra"
"t45","Palabra"
"t46","Palabra"
"t47","Palabra"
"t48","Palabra"
"t49","Palabra"
"t50","Palabra"
"t51","Palabra"
"t52","Palabra"
"t53","Palabra"
"t54","Palabra"
"t55","Palabra"
"t56","Palabra"
"t57","Palabra"
"t58","Palabra"
"t59","Palabra"
"t60","Palabra"
"t61","Palabra"
"t62","Palabra"
"t63","Palabra"
"t64","Palabra"
"t65","Palabra"
"t66","Palabra"
"t67","Palabra"
"t68","Palabra"
"t69","Palabra"
"t70","Palabra"
"t71","Palabra"
"t72","Palabra"
"t73","Palabra"
"t74","Palabra"
"t75","Palabra"
"t76","Palabra"
"t77","Palabra"
"t78","Palabra"
"t79","Palabra"
"t80","Palabra"
"t81","Palabra"
"t82","Palabra"
"t83","Palabra"
"t84","Palabra"
"t85","Palabra"
"t86","Palabra"
"t87","Palabra"
"t88","Palabra"
"t89","Palabra"
"t90","Palabra"
"t91","Palabra"
"t92","Palabra"
"t93","Palabra"
"t94","Palabra"
"t95","Palabra"
"t96","Palabra"
"t97","Palabra"
"t98","Palabra"
"t99","Palabra"
"t100","Palabra"
"t101","Palabra"
"t102","Palabra"
"t103","Palabra"
"t104","Palabra"
"t105","Palabra"
"t106","Palabra"
"t107","Palabra"
"t108","Palabra"
"t109","Palabra"
"t110","Palabra"
"t111","Palabra"
"t112","Palabra"
"t113","Palabra"
"t114","Palabra"
"t115","Palabra"
"t116","Palabra"
"t117","Palabra"
"t118","Palabra"
"t119","Palabra"
"t120","Palabra"
"t121","Palabra"
"t122","Palabra"
"t123","Palabra"
"t124","Palabra"
"t125","Palabra"
"t126","Palabra"
"t127","Palabra"
"t128","Palabra"
"t129","Palabra"
"t130","Palabra"
"t131","Palabra"
"t132","Palabra"
"t133","Palabra"
"t134","Palabra"
"t135","Palabra"
"t136","Palabra"
"t137","Palabra"
"t138","Palabra"
"t139","Palabra"
"t140","Palabra"
"t141","Palabra"
"t142","Palabra"
"t143","Palabra"
"t144","Palabra"
"t145","Palabra"
"t146","Palabra"
"t147","Palabra"
"t148","Palabra"
"t149","Palabra"
"t150","Palabra"
"t151","Palabra"
"t152","Palabra"
"t153","Palabra"
"t154","Palabra"
"t155","Palabra"
"t156","Palabra"
"t157","Palabra"
"t158","Palabra"
"t159","Palabra"
"t160","Palabra"
"t161","Palabra"
"t162","Palabra"
"t163","Palabra"
"t164","Palabra"
"t165","Palabra"
"t166","Palabra"
"t167","Palabra"
"t168","Palabra"
"t169","Palabra"
"t170","Palabra"
"t171","Palabra"
"t172","Palabra"
"t173","Palabra"
"t174","Palabra"
"t175","Palabra"
"t176","Palabra"
"t177","Palabra"
"t178","Palabra"
"t179","Palabra"
"t180","Palabra"
"t181","Palabra"
"t182","Palabra"
"t183","Palabra"
"t184","Palabra"
"t185","Palabra"
"t186","Palabra"
"t187","Palabra"
"t188","Palabra"
"t189","Palabra"
"t190","Palabra"
"t191","Palabra"
"t192","Palabra"
"t193","Palabra"
"t194","Palabra"
"t195","Palabra"
"t196","Palabra"
"t197","Palabra"
"t198","Palabra"
"t199","Palabra"
"t200","Palabra"
"t201","Palabra"
"t202","Palabra"
"t203","Palabra"
"t204","Palabra"
"t205","Palabra"
"t206","Palabra"
"t207","Palabra"
"t208","Palabra"
"t209","Palabra"
"t210","Palabra"
"t211","Palabra"
"t212","Palabra"
"t213","Palabra"
"t214","Palabra"
"t215","Palabra"
"t216","Palabra"
"t217","Palabra"
"t218","Palabra"
"t219","Palabra"
"t220","Palabra"
"t221","Palabra"
"t222","Palabra"
"t223","Palabra"
"t224","Palabra"
"t225","Palabra"
"t226","Palabra"
"t227","Palabra"
"t228","Palabra"
"t229","Palabra"
"t230","Palabra"
"t231","Palabra"
"t232","Palabra"
"t233","Palabra"
"t234","Palabra"
"t235","Palabra"
"t236","Palabra"
"t237","Palabra"
"t238","Palabra"
"t239","Palabra"
"t240","Palabra"
"t241","Palabra"
"t242","Palabra"
"t243","Palabra"
"t244","Palabra"
"t245","Palabra"
"t246","Palabra"
"t247","Palabra"
"t248","Palabra"
"t249","Palabra"
"t250","Palabra"
"t251","Palabra"
"t252","Palabra"
"t253","Palabra"
"t254","Palabra"
"t255","Palabra"
"t256","Palabra"
"t257","Palabra"
"t258","Palabra"
"t259","Palabra"
"t260","Palabra"
"t261","Palabra"
"t262","Palabra"
"t263","Palabra"
"t264","Palabra"
"t265","Palabra"
"t266","Palabra"
"t267","Palabra"
"t268","Palabra"
"t269","Palabra"
"t270","Palabra"
"t271","Palabra"
"t272","Palabra"
"t273","Palabra"
"t274","Palabra"
"t275","Palabra"
"t276","Palabra"
"t277","Palabra"
"t278","Palabra"
"t279","Palabra"
"t280","Palabra"
"t281","Palabra"
"t282","Palabra"
"t283","Palabra"
"t284","Palabra"
"t285","Palabra"
"t286","Palabra"
"t287","Palabra"
"t288","Palabra"
"t289","Palabra"
"t290","Palabra"
"t291","Palabra"
"t292","Palabra"
"t293","Palabra"
"t294","Palabra"
"t295","Palabra"
"t296","Palabra"
"t297","Palabra"
"t298","Palabra"
"t299","Palabra"
"t300","Palabra"
"t301","Palabra"
"t302","Palabra"
"t303","Palabra"
"t304","Palabra"
"t305","Palabra"
"t306","Palabra"
"t307","Palabra"
"t308","Palabra"
"t309","Palabra"
"t310","Palabra"
"t311","Palabra"
"t312","Palabra"
"t313","Palabra"
"t314","Palabra"
"t315","Palabra"
"t316","Palabra"
"t317","Palabra"
"t318","Palabra"
"t319","Palabra"
"t320","Palabra"
"t321","Palabra"
"t322","Palabra"
"t323","Palabra"
"t324","Palabra"
"t325","Palabra"
"t326","Palabra"
"t327","Palabra"
"t328","Palabra"
"t329","Palabra"
"t330","Palabra"
"t331","Palabra"
"t332","Palabra"
"t333","Palabra"
"t334","Palabra"
"t335","Palabra"
"t336","Palabra"
"t337","Palabra"
"t338","Palabra"
"t339","Palabra"
"t340","Palabra"
"t341","Palabra"
"t342","Palabra"
"t343","Palabra"
"t344","Palabra"
"t345","Palabra"
"t346","Palabra"
"t347","Palabra"
"t348","Palabra"
"t349","Palabra"
"t350","Palabra"
"t351","Palabra"
"t352","Palabra"
"t353","Palabra"
"t354","Palabra"
"t355","Palabra"
"t356","Palabra"
"t357","Palabra"
"t358","Palabra"
"t359","Palabra"
"t360","Palabra"
"t361","Palabra"
"t362","Palabra"
"t363","Palabra"
"t364","Palabra"
"t365","Palabra"
"t366","Palabra"
"t367","Palabra"
"t368","Palabra"
"t369","Palabra"
"t370","Palabra"
"t371","Palabra"
"t372","Palabra"
"t373","Palabra"
"t374","Palabra"
"t375","Palabra"
"t376","Palabra"
"t377","Palabra"
"t378","Palabra"
"t379","Palabra"
"t380","Palabra"
"t381","Palabra"
"t382","Palabra"
"t383","Palabra"
"t384","Palabra"
"t385","Palabra"
"t386","Palabra"
"t387","Palabra"
"t388","Palabra"
"t389","Palabra"
"t390","Palabra"
"t391","Palabra"
"t392","Palabra"
"t393","Palabra"
"t394","Palabra"
"t395","Palabra"
"t396","Palabra"
"t397","Palabra"
"t398","Palabra"
"t399","Palabra"
"t400","Palabra"
"t401","Palabra"
"t402","Palabra"
"t403","Palabra"
"t404","Palabra"
"t405","Palabra"
"t406","Palabra"
"t407","Palabra"
"t408","Palabra"
"t409","Palabra"
"t410","Palabra"
"t411","Palabra"
"t412","Palabra"
"t413","Palabra"
"t414","Palabra"
"t415","Palabra"
"t416","Palabra"
"t417","Palabra"
"t418","Palabra"
"t419","Palabra"
"t420","Palabra"
"t421","Palabra"
"t422","Palabra"
"t423","Palabra"
"t424","Palabra"
"t425","Palabra"
"t426","Palabra"
"t427","Palabra"
"t428","Palabra"
"t429","Palabra"
"t430","Palabra"
"t431","Palabra"
"t432","Palabra"
"t433","Palabra"
"t434","Palabra"
"t435","Palabra"
"t436","Palabra"
"t437","Palabra"
"t438","Palabra"
"t439","Palabra"
"t440","Palabra"
"t441","Palabra"
"t442","Palabra"
"t443","Palabra"
"t444","Palabra"
"t445","Palabra"
"t446","Palabra"
"t447","Palabra"
"t448","Palabra"
"t449","Palabra"
"t450","Palabra"
"t451","Palabra"
"t452","Palabra"
"t453","Palabra"
"t454","Palabra"
"t455","Palabra"
"t456","Palabra"
"t457","Palabra"
"t458","Palabra"
"t459","Palabra"
"t460","Palabra"
"t461","Palabra"
"t462","Palabra"
"t463","Palabra"
"t464","Palabra"
"t465","Palabra"
"t466","Palabra"
"t467","Palabra"
"t468","Palabra"
"t469","Palabra"
"t470","Palabra"
"t471","Palabra"
"t472","Palabra"
"t473","Palabra"
"t474","Palabra"
"t475","Palabra"
"t476","Palabra"
"t477","Palabra"
"t478","Palabra"
"t479","Palabra"
"t480","Palabra"
"t481","Palabra"
"t482","Palabra"
"t483","Palabra"
"t484","Palabra"
"t485","Palabra"
"t486","Palabra"
"t487","Palabra"
"t488","Palabra"
"t489","Palabra"
"t490","Palabra"
"t491","Palabra"
"t492","Palabra"
"t493","Palabra"
"t494","Palabra"
"t495","Palabra"
"t496","Palabra"
"t497","Palabra"
"t498","Palabra"
"t499","Palabra"
"t500","Palabra"
"t501","Palabra"
"t502","Palabra"
"t503","Palabra"
"t504","Palabra"
"t505","Palabra"
"t506","Palabra"
"t507","Palabra"
"t508","Palabra"
"t509","Palabra"
"t510","Palabra"
"t511","Palabra"
"t512","Palabra"
"t513","Palabra"
"t514","Palabra"
"t515","Palabra"
"t516","Palabra"
"t517","Palabra"
"t518","Palabra"
"t519","Palabra"
"t520","Palabra"
"t521","Palabra"
"t522","Palabra"
"t523","Palabra"
"t524","Palabra"
"t525","Palabra"
"t526","Palabra"
"t527","Palabra"
"t528","Palabra"
"t529","Palabra"
"t530","Palabra"
"t531","Palabra"
"t532","Palabra"
"t533","Palabra"
"t534","Palabra"
"t535","Palabra"
"t536","Palabra"
"t537","Palabra"
"t538","Palabra"
"t539","Palabra"
"t540","Palabra"
"t541","Palabra"
"t542","Palabra"
"t543","Palabra"
"t544","Palabra"
"t545","Palabra"
"t546","Palabra"
"t547","Palabra"
"t548","Palabra"
"t549","Palabra"
"t550","Palabra"
"t551","Palabra"
"t552","Palabra"
"t553","Palabra"
"t554","Palabra"
"t555","Palabra"
"t556","Palabra"
"t557","Palabra"
"t558","Palabra"
"t559","Palabra"
"t560","Palabra"
"t561","Palabra"
"t562","Palabra"
"t563","Palabra"
"t564","Palabra"
"t565","Palabra"
"t566","Palabra"
"t567","Palabra"
"t568","Palabra"
"t569","Palabra"
"t570","Palabra"
"t571","Palabra"
"t572","Palabra"
"t573","Palabra"
"t574","Palabra"
"t575","Palabra"
"t576","Palabra"
"t577","Palabra"
"t578","Palabra"
"t579","Palabra"
"t580","Palabra"
"t581","Palabra"
"t582","Palabra"
"t583","Palabra"
"t584","Palabra"
"t585","Palabra"
"t586","Palabra"
"t587","Palabra"
"t588","Palabra"
"t589","Palabra"
"t590","Palabra"
"t591","Palabra"
"t592","Palabra"
"t593","Palabra"
"t594","Palabra"
"t595","Palabra"
"t596","Palabra"
"t597","Palabra"
"t598","Palabra"
"t599","Palabra"
"t600","Palabra"
"t601","Palabra"
"t602","Palabra"
"t603","Palabra"
"t604","Palabra"
"t605","Palabra"
"t606","Palabra"
"t607","Palabra"
"t608","Palabra"
"t609","Palabra"
"t610","Palabra"
"t611","Palabra"
"t612","Palabra"
"t613","Palabra"
"t614","Palabra"
"t615","Palabra"
"t616","Palabra"
"t617","Palabra"
"t618","Palabra"
"t619","Palabra"
"t620","Palabra"
"t621","Palabra"
"t622","Palabra"
"t623","Palabra"
"t624","Palabra"
"t625","Palabra"
"t626","Palabra"
"t627","Palabra"
"t628","Palabra"
"t629","Palabra"
"t630","Palabra"
"t631","Palabra"
"t632","Palabra"
"t633","Palabra"
"t634","Palabra"
"t635","Palabra"
"t636","Palabra"
"t637","Palabra"
"t638","Palabra"
"t639","Palabra"
"t640","Palabra"
"t641","Palabra"
"t642","Palabra"
"t643","Palabra"
"t644","Palabra"
"t645","Palabra"
"t646","Palabra"
"t647","Palabra"
"t648","Palabra"
"t649","Palabra"
"t650","Palabra"
"t651","Palabra"
"t652","Palabra"
"t653","Palabra"
"t654","Palabra"
"t655","Palabra"
"t656","Palabra"
"t657","Palabra"
"t658","Palabra"
"t659","Palabra"
"t660","Palabra"
"t661","Palabra"
"t662","Palabra"
"t663","Palabra"
"t664","Palabra"
"t665","Palabra"
"t666","Palabra"
"t667","Palabra"
"t668","Palabra"
"t669","Palabra"
"t670","Palabra"
"t671","Palabra"
"t672","Palabra"
"t673","Palabra"
"t674","Palabra"
"t675","Palabra"
"t676","Palabra"
"t677","Palabra"
"t678","Palabra"
"t679","Palabra"
"t680","Palabra"
"t681","Palabra"
"t682","Palabra"
"t683","Palabra"
"t684","Palabra"
"t685","Palabra"
"t686","Palabra"
"t687","Palabra"
"t688","Palabra"
"t689","Palabra"
"t690","Palabra"
"t691","Palabra"
"t692","Palabra"
"t693","Palabra"
"t694","Palabra"
"t695","Palabra"
"t696","Palabra"
"t697","Palabra"
"t698","Palabra"
"t699","Palabra"
"t700","Palabra"
"t701","Palabra"
"t702","Palabra"
"t703","Palabra"
"t704","Palabra"
"t705","Palabra"
"t706","Palabra"
"t707","Palabra"
"t708","Palabra"
"t709","Palabra"
"t710","Palabra"
"t711","Palabra"
"t712","Palabra"
"t713","Palabra"
"t714","Palabra"
"t715","Palabra"
"t716","Palabra"
"t717","Palabra"
"t718","Palabra"
"t719","Palabra"
"t720","Palabra"
"t721","Palabra"
"t722","Palabra"
"t723","Palabra"
"t724","Palabra"
"t725","Palabra"
"t726","Palabra"
"t727","Palabra"
"t728","Palabra"
"t729","Palabra"
"t730","Palabra"
"t731","Palabra"
"t732","Palabra"
"t733","Palabra"
"t734","Palabra"
"t735","Palabra"
"t736","Palabra"
"t737","Palabra"
"t738","Palabra"
"t739","Palabra"
"t740","Palabra"
"t741","Palabra"
"t742","Palabra"
"t743","Palabra"
"t744","Palabra"
"t745","Palabra"
"t746","Palabra"
"t747","Palabra"
"t748","Palabra"
"t749","Palabra"
"t750","Palabra"
"t751","Palabra"
"t752","Palabra"
"t753","Palabra"
"t754","Palabra"
"t755","Palabra"
"t756","Palabra"
"t757","Palabra"
"t758","Palabra"
"t759","Palabra"
"t760","Palabra"
"t761","Palabra"
"t762","Palabra"
"t763","Palabra"
"t764","Palabra"
"t765","Palabra"
"t766","Palabra"
"t767","Palabra"
"t768","Palabra"
"t769","Palabra"
"t770","Palabra"
"t771","Palabra"
"t772","Palabra"
"t773","Palabra"
"t774","Palabra"
"t775","Palabra"
"t776","Palabra"
"t777","Palabra"
"t778","Palabra"
"t779","Palabra"
"t780","Palabra"
"t781","Palabra"
"t782","Palabra"
"t783","Palabra"
"t784","Palabra"
"t785","Palabra"
"t786","Palabra"
"t787","Palabra"
"t788","Palabra"
"t789","Palabra"
"t790","Palabra"
"t791","Palabra"
"t792","Palabra"
"t793","Palabra"
"t794","Palabra"
"t795","Palabra"
"t796","Palabra"
"t797","Palabra"
"t798","Palabra"
"t799","Palabra"
"t800","Palabra"
"t801","Palabra"
"t802","Palabra"
"t803","Palabra"
"t804","Palabra"
"t805","Palabra"
"t806","Palabra"
"t807","Palabra"
"t808","Palabra"
"t809","Palabra"
"t810","Palabra"
"t811","Palabra"
"t812","Palabra"
"t813","Palabra"
"t814","Palabra"
"t815","Palabra"
"t816","Palabra"
"t817","Palabra"
"t818","Palabra"
"t819","Palabra"
"t820","Palabra"
"t821","Palabra"
"t822","Palabra"
"t823","Palabra"
"t824","Palabra"
"t825","Palabra"
"t826","Palabra"
"t827","Palabra"
"t828","Palabra"
"t829","Palabra"
"t830","Palabra"
"t831","Palabra"
"t832","Palabra"
"t833","Palabra"
"t834","Palabra"
"t835","Palabra"
"t836","Palabra"
"t837","Palabra"
"t838","Palabra"
"t839","Palabra"
"t840","Palabra"
"t841","Palabra"
"t842","Palabra"
"t843","Palabra"
"t844","Palabra"
"t845","Palabra"
"t846","Palabra"
"t847","Palabra"
"t848","Palabra"
"t849","Palabra"
"t850","Palabra"
"t851","Palabra"
"t852","Palabra"
"t853","Palabra"
"t854","Palabra"
"t855","Palabra"
"t856","Palabra"
"t857","Palabra"
"t858","Palabra"
"t859","Palabra"
"t860","Palabra"
"t861","Palabra"
"t862","Palabra"
"t863","Palabra"
"t864","Palabra"
"t865","Palabra"
"t866","Palabra"
"t867","Palabra"
"t868","Palabra"
"t869","Palabra"
"t870","Palabra"
"t871","Palabra"
"t872","Palabra"
"t873","Palabra"
"t874","Palabra"
"t875","Palabra"
"t876","Palabra"
"t877","Palabra"
"t878","Palabra"
"t879","Palabra"
"t880","Palabra"
"t881","Palabra"
"t882","Palabra"
"t883","Palabra"
"t884","Palabra"
"t885","Palabra"
"t886","Palabra"
"t887","Palabra"
"t888","Palabra"
"t889","Palabra"
"t890","Palabra"
"t891","Palabra"
"t892","Palabra"
"t893","Palabra"
"t894","Palabra"
"t895","Palabra"
"t896","Palabra"
"t897","Palabra"
"t898","Palabra"
"t899","Palabra"
"t900","Palabra"
"t901","Palabra"
"t902","Palabra"
"t903","Palabra"
"t904","Palabra"
"t905","Palabra"
"t906","Palabra"
"t907","Palabra"
"t908","Palabra"
"t909","Palabra"
"t910","Palabra"
"t911","Palabra"
"t912","Palabra"
"t913","Palabra"
"t914","Palabra"
"t915","Palabra"
"t916","Palabra"
"t917","Palabra"
"t918","Palabra"
"t919","Palabra"
"t920","Palabra"
"t921","Palabra"
"t922","Palabra"
"t923","Palabra"
"t924","Palabra"
"t925","Palabra"
"t926","Palabra"
"t927","Palabra"
"t928","Palabra"
"t929","Palabra"
"t930","Palabra"
"t931","Palabra"
"t932","Palabra"
"t933","Palabra"
"t934","Palabra"
"t935","Palabra"
"t936","Palabra"
"t937","Palabra"
"t938","Palabra"
"t939","Palabra"
"t940","Palabra"
"t941","Palabra"
"t942","Palabra"
"t943","Palabra"
"t944","Palabra"
"t945","Palabra"
"t946","Palabra"
"t947","Palabra"
"t948","Palabra"
"t949","Palabra"
"t950","Palabra"
"t951","Palabra"
"t952","Palabra"
"t953","Palabra"
"t954","Palabra"
"t955","Palabra"
"t956","Palabra"
"t957","Palabra"
"t958","Palabra"
"t959","Palabra"
"t960","Palabra"
"t961","Palabra"
"t962","Palabra"
"t963","Palabra"
"t964","Palabra"
"t965","Palabra"
"t966","Palabra"
"t967","Palabra"
"t968","Palabra"
"t969","Palabra"
"t970","Palabra"
"t971","Palabra"
"t972","Palabra"
"t973","Palabra"
"t974","Palabra"
"t975","Palabra"
"t976","Palabra"
"t977","Palabra"
"t978","Palabra"
"t979","Palabra"
"t980","Palabra"
"t981","Palabra"
"t982","Palabra"
"t983","Palabra"
"t984","Palabra"
"t985","Palabra"
"t986","Palabra"
"t987","Palabra"
"t988","Palabra"
"t989","Palabra"
"t990","Palabra"
"t991","Palabra"
"t992","Palabra"
"t993","Palabra"
"t994","Palabra"
"t995","Palabra"
"t996","Palabra"
"t997","Palabra"
"t998","Palabra"
"t999","Palabra"
"t1000","Palabra"
"t1001","Palabra"
"t1002","Palabra"
"t1003","Palabra"
"t1004","Palabra"
"t1005","Palabra"
"t1006","Palabra"
"t1007","Palabra"
"t1008","Palabra"
"t1009","Palabra"
"t1010","Palabra"
"t1011","Palabra"
"t1012","Palabra"
"t1013","Palabra"
"t1014","Palabra"
"t1015","Palabra"
"t1016","Palabra"
"t1017","Palabra"
"t1018","Palabra"
"t1019","Palabra"
"t1020","Palabra"
"t1021","Palabra"
"t1022","Palabra"
"t1023","Palabra"
"t1024","Palabra"
"t1025","Palabra"
"t1026","Palabra"
"t1027","Palabra"
"t1028","Palabra"
"t1029","Palabra"
"t1030","Palabra"
"t1031","Palabra"
"t1032","Palabra"
"t1033","Palabra"
"t1034","Palabra"
"t1035","Palabra"
"t1036","Palabra"
"t1037","Palabra"
"t1038","Palabra"
"t1039","Palabra"
"t1040","Palabra"
"t1041","Palabra"
"t1042","Palabra"
"t1043","Palabra"
"t1044","Palabra"
"t1045","Palabra"
"t1046","Palabra"
"t1047","Palabra"
"t1048","Palabra"
"t1049","Palabra"
"t1050","Palabra"
"t1051","Palabra"
"t1052","Palabra"
"t1053","Palabra"
"t1054","Palabra"
"t1055","Palabra"
"t1056","Palabra"
"t1057","Palabra"
"t1058","Palabra"
"t1059","Palabra"
"t1060","Palabra"
"t1061","Palabra"
"t1062","Palabra"
"t1063","Palabra"
"t1064","Palabra"
"t1065","Palabra"
"t1066","Palabra"
"t1067","Palabra"
"t1068","Palabra"
"t1069","Palabra"
"t1070","Palabra"
"t1071","Palabra"
"t1072","Palabra"
"t1073","Palabra"
"t1074","Palabra"
"t1075","Palabra"
"t1076","Palabra"
"t1077","Palabra"
"t1078","Palabra"
"t1079","Palabra"
"t1080","Palabra"
"t1081","Palabra"
"t1082","Palabra"
"t1083","Palabra"
"t1084","Palabra"
"t1085","Palabra"
"t1086","Palabra"
"t1087","Palabra"
"t1088","Palabra"
"t1089","Palabra"
"t1090","Palabra"
"t1091","Palabra"
"t1092","Palabra"
"t1093","Palabra"
"t1094","Palabra"
"t1095","Palabra"
"t1096","Palabra"
"t1097","Palabra"
"t1098","Palabra"
"t1099","Palabra"
"t1100","Palabra"
"t1101","Palabra"
"t1102","Palabra"
"t1103","Palabra"
"t1104","Palabra"
"t1105","Palabra"
"t1106","Palabra"
"t1107","Palabra"
"t1108","Palabra"
"t1109","Palabra"
"t1110","Palabra"
"t1111","Palabra"
"t1112","Palabra"
"t1113","Palabra"
"t1114","Palabra"
"t1115","Palabra"
"t1116","Palabra"
"t1117","Palabra"
"t1118","Palabra"
"t1119","Palabra"
"t1120","Palabra"
"t1121","Palabra"
"t1122","Palabra"
"t1123","Palabra"
"t1124","Palabra"
"t1125","Palabra"
"t1126","Palabra"
"t1127","Palabra"
"t1128","Palabra"
"t1129","Palabra"
"t1130","Palabra"
"t1131","Palabra"
"t1132","Palabra"
"t1133","Palabra"
"t1134","Palabra"
"t1135","Palabra"
"t1136","Palabra"
"t1137","Palabra"
"t1138","Palabra"
"t1139","Palabra"
"t1140","Palabra"
"t1141","Palabra"
"t1142","Palabra"
"t1143","Palabra"
"t1144","Palabra"
"t1145","Palabra"
"t1146","Palabra"
"t1147","Palabra"
"t1148","Palabra"
"t1149","Palabra"
"t1150","Palabra"
"t1151","Palabra"
"t1152","Palabra"
"t1153","Palabra"
"t1154","Palabra"
"t1155","Palabra"
"t1156","Palabra"
"t1157","Palabra"
"t1158","Palabra"
"t1159","Palabra"
"t1160","Palabra"
"t1161","Palabra"
"t1162","Palabra"
"t1163","Palabra"
"t1164","Palabra"
"t1165","Palabra"
"t1166","Palabra"
"t1167","Palabra"
"t1168","Palabra"
"t1169","Palabra"
"t1170","Palabra"
"t1171","Palabra"
"t1172","Palabra"
"t1173","Palabra"
"t1174","Palabra"
"t1175","Palabra"
"t1176","Palabra"
"t1177","Palabra"
"t1178","Palabra"
"t1179","Palabra"
"t1180","Palabra"
"t1181","Palabra"
"t1182","Palabra"
"t1183","Palabra"
"t1184","Palabra"
"t1185","Palabra"
"t1186","Palabra"
"t1187","Palabra"
"t1188","Palabra"
"t1189","Palabra"
"t1190","Palabra"
"t1191","Palabra"
"t1192","Palabra"
"t1193","Palabra"
"t1194","Palabra"
"t1195","Palabra"
"t1196","Palabra"
"t1197","Palabra"
"t1198","Palabra"
"t1199","Palabra"
"t1200","Palabra"
"t1201","Palabra"
"t1202","Palabra"
"t1203","Palabra"
"t1204","Palabra"
"t1205","Palabra"
"t1206","Palabra"
"t1207","Palabra"
"t1208","Palabra"
"t1209","Palabra"
"t1210","Palabra"
"t1211","Palabra"
"t1212","Palabra"
"t1213","Palabra"
"t1214","Palabra"
"t1215","Palabra"
"t1216","Palabra"
"t1217","Palabra"
"t1218","Palabra"
"t1219","Palabra"
"t1220","Palabra"
"t1221","Palabra"
"t1222","Palabra"
"t1223","Palabra"
"t1224","Palabra"
"t1225","Palabra"
"t1226","Palabra"
"t1227","Palabra"
"t1228","Palabra"
"t1229","Palabra"
"t1230","Palabra"
"t1231","Palabra"
"t1232","Palabra"
"t1233","Palabra"
"t1234","Palabra"
"t1235","Palabra"
"t1236","Palabra"
"t1237","Palabra"
"t1238","Palabra"
"t1239","Palabra"
"t1240","Palabra"
"t1241","Palabra"
"t1242","Palabra"
"t1243","Palabra"
"t1244","Palabra"
"t1245","Palabra"
"t1246","Palabra"
"t1247","Palabra"
"t1248","Palabra"
"t1249","Palabra"
"t1250","Palabra"
"t1251","Palabra"
"t1252","Palabra"
"t1253","Palabra"
"t1254","Palabra"
"t1255","Palabra"
"t1256","Palabra"
"t1257","Palabra"
"t1258","Palabra"
"t1259","Palabra"
"t1260","Palabra"
"t1261","Palabra"
"t1262","Palabra"
"t1263","Palabra"
"t1264","Palabra"
"t1265","Palabra"
"t1266","Palabra"
"t1267","Palabra"
"t1268","Palabra"
"t1269","Palabra"
"t1270","Palabra"
"t1271","Palabra"
"t1272","Palabra"
"t1273","Palabra"
"t1274","Palabra"
"t1275","Palabra"
"t1276","Palabra"
"t1277","Palabra"
"t1278","Palabra"
"t1279","Palabra"
"t1280","Palabra"
"t1281","Palabra"
"t1282","Palabra"
"t1283","Palabra"
"t1284","Palabra"
"t1285","Palabra"
"t1286","Palabra"
"t1287","Palabra"
"t1288","Palabra"
"t1289","Palabra"
"t1290","Palabra"
"t1291","Palabra"
"t1292","Palabra"
"t1293","Palabra"
"t1294","Palabra"
"t1295","Palabra"
"t1296","Palabra"
"t1297","Palabra"
"t1298","Palabra"
"t1299","Palabra"
"t1300","Palabra"
"t1301","Palabra"
"t1302","Palabra"
"t1303","Palabra"
"t1304","Palabra"
"t1305","Palabra"
"t1306","Palabra"
"t1307","Palabra"
"t1308","Palabra"
"t1309","Palabra"
"t1310","Palabra"
"t1311","Palabra"
"t1312","Palabra"
"t1313","Palabra"
"t1314","Palabra"
"t1315","Palabra"
"t1316","Palabra"
"t1317","Palabra"
"t1318","Palabra"
"t1319","Palabra"
"t1320","Palabra"
"t1321","Palabra"
"t1322","Palabra"
"t1323","Palabra"
"t1324","Palabra"
"t1325","Palabra"
"t1326","Palabra"
"t1327","Palabra"
"t1328","Palabra"
"t1329","Palabra"
"t1330","Palabra"
"t1331","Palabra"
"t1332","Palabra"
"t1333","Palabra"
"t1334","Palabra"
"t1335","Palabra"
"t1336","Palabra"
"t1337","Palabra"
"t1338","Palabra"
"t1339","Palabra"
"t1340","Palabra"
"t1341","Palabra"
"t1342","Palabra"
"t1343","Palabra"
"t1344","Palabra"
"t1345","Palabra"
"t1346","Palabra"
"t1347","Palabra"
"t1348","Palabra"
"t1349","Palabra"
"t1350","Palabra"
"t1351","Palabra"
"t1352","Palabra"
"t1353","Palabra"
"t1354","Palabra"
"t1355","Palabra"
"t1356","Palabra"
"t1357","Palabra"
"t1358","Palabra"
"t1359","Palabra"
"t1360","Palabra"
"t1361","Palabra"
"t1362","Palabra"
"t1363","Palabra"
"t1364","Palabra"
"t1365","Palabra"
"t1366","Palabra"
"t1367","Palabra"
"t1368","Palabra"
"t1369","Palabra"
"t1370","Palabra"
"t1371","Palabra"
"t1372","Palabra"
"t1373","Palabra"
"t1374","Palabra"
"t1375","Palabra"
"t1376","Palabra"
"t1377","Palabra"
"t1378","Palabra"
"t1379","Palabra"
"t1380","Palabra"
"t1381","Palabra"
"t1382","Palabra"
"t1383","Palabra"
"t1384","Palabra"
"t1385","Palabra"
"t1386","Palabra"
"t1387","Palabra"
"t1388","Palabra"
"t1389","Palabra"
"t1390","Palabra"
"t1391","Palabra"
"t1392","Palabra"
"t1393","Palabra"
"t1394","Palabra"
"t1395","Palabra"
"t1396","Palabra"
"t1397","Palabra"
"t1398","Palabra"
"t1399","Palabra"
"t1400","Palabra"
"t1401","Palabra"
"t1402","Palabra"
"t1403","Palabra"
"t1404","Palabra"
"t1405","Palabra"
"t1406","Palabra"
"t1407","Palabra"
"t1408","Palabra"
"t1409","Palabra"
"t1410","Palabra"
"t1411","Palabra"
"t1412","Palabra"
"t1413","Palabra"
"t1414","Palabra"
"t1415","Palabra"
"t1416","Palabra"
"t1417","Palabra"
"t1418","Palabra"
"t1419","Palabra"
"t1420","Palabra"
"t1421","Palabra"
"t1422","Palabra"
"t1423","Palabra"
"t1424","Palabra"
"t1425","Palabra"
"t1426","Palabra"
"t1427","Palabra"
"t1428","Palabra"
"t1429","Palabra"
"t1430","Palabra"
"t1431","Palabra"
"t1432","Palabra"
"t1433","Palabra"
"t1434","Palabra"
"t1435","Palabra"
"t1436","Palabra"
"t1437","Palabra"
"t1438","Palabra"
"t1439","Palabra"
"t1440","Palabra"
"t1441","Palabra"
"t1442","Palabra"
"t1443","Palabra"
"t1444","Palabra"
"t1445","Palabra"
"t1446","Palabra"
"t1447","Palabra"
"t1448","Palabra"
"t1449","Palabra"
"t1450","Palabra"
"t1451","Palabra"
"t1452","Palabra"
"t1453","Palabra"
"t1454","Palabra"
"t1455","Palabra"
"t1456","Palabra"
"t1457","Palabra"
"t1458","Palabra"
"t1459","Palabra"
"t1460","Palabra"
"t1461","Palabra"
"t1462","Palabra"
"t1463","Palabra"
"t1464","Palabra"
"t1465","Palabra"
"t1466","Palabra"
"t1467","Palabra"
"t1468","Palabra"
"t1469","Palabra"
"t1470","Palabra"
"t1471","Palabra"
"t1472","Palabra"
"t1473","Palabra"
"t1474","Palabra"
"t1475","Palabra"
"t1476","Palabra"
"t1477","Palabra"
"t1478","Palabra"
"t1479","Palabra"
"t1480","Palabra"
"t1481","Palabra"
"t1482","Palabra"
"t1483","Palabra"
"t1484","Palabra"
"t1485","Palabra"
"t1486","Palabra"
"t1487","Palabra"
"t1488","Palabra"
"t1489","Palabra"
"t1490","Palabra"
"t1491","Palabra"
"t1492","Palabra"
"t1493","Palabra"
"t1494","Palabra"
"t1495","Palabra"
"t1496","Palabra"
"t1497","Palabra"
"t1498","Palabra"
"t1499","Palabra"
"t1500","Palabra"
"t1501","Palabra"
"t1502","Palabra"
"t1503","Palabra"
"t1504","Palabra"
"t1505","Palabra"
"t1506","Palabra"
"t1507","Palabra"
"t1508","Palabra"
"t1509","Palabra"
"t1510","Palabra"
"t1511","Palabra"
"t1512","Palabra"
"t1513","Palabra"
"t1514","Palabra"
"t1515","Palabra"
"t1516","Palabra"
"t1517","Palabra"
"t1518","Palabra"
"t1519","Palabra"
"t1520","Palabra"
"t1521","Palabra"
"t1522","Palabra"
"t1523","Palabra"
"t1524","Palabra"
"t1525","Palabra"
"t1526","Palabra"
"t1527","Palabra"
"t1528","Palabra"
"t1529","Palabra"
"t1530","Palabra"
"t1531","Palabra"
"t1532","Palabra"
"t1533","Palabra"
"t1534","Palabra"
"t1535","Palabra"
"t1536","Palabra"
"t1537","Palabra"
"t1538","Palabra"
"t1539","Palabra"
"t1540","Palabra"
"t1541","Palabra"
"t1542","Palabra"
"t1543","Palabra"
"t1544","Palabra"
"t1545","Palabra"
"t1546","Palabra"
"t1547","Palabra"
"t1548","Palabra"
"t1549","Palabra"
"t1550","Palabra"
"t1551","Palabra"
"t1552","Palabra"
"t1553","Palabra"
"t1554","Palabra"
"t1555","Palabra"
"t1556","Palabra"
"t1557","Palabra"
"t1558","Palabra"
"t1559","Palabra"
"t1560","Palabra"
"t1561","Palabra"
"t1562","Palabra"
"t1563","Palabra"
"t1564","Palabra"
"t1565","Palabra"
"t1566","Palabra"
"t1567","Palabra"
"t1568","Palabra"
"t1569","Palabra"
"t1570","Palabra"
"t1571","Palabra"
"t1572","Palabra"
"t1573","Palabra"
"t1574","Palabra"
"t1575","Palabra"
"t1576","Palabra"
"t1577","Palabra"
"t1578","Palabra"
"t1579","Palabra"
"t1580","Palabra"
"t1581","Palabra"
"t1582","Palabra"
"t1583","Palabra"
"t1584","Palabra"
"t1585","Palabra"
"t1586","Palabra"
"t1587","Palabra"
"t1588","Palabra"
"t1589","Palabra"
"t1590","Palabra"
"t1591","Palabra"
"t1592","Palabra"
"t1593","Palabra"
"t1594","Palabra"
"t1595","Palabra"
"t1596","Palabra"
"t1597","Palabra"
"t1598","Palabra"
"t1599","Palabra"
"t1600","Palabra"
"t1601","Palabra"
"t1602","Palabra"
"t1603","Palabra"
"t1604","Palabra"
"t1605","Palabra"
"t1606","Palabra"
"t1607","Palabra"
"t1608","Palabra"
"t1609","Palabra"
"t1610","Palabra"
"t1611","Palabra"
"t1612","Palabra"
"t1613","Palabra"
"t1614","Palabra"
"t1615","Palabra"
"t1616","Palabra"
"t1617","Palabra"
"t1618","Palabra"
"t1619","Palabra"
"t1620","Palabra"
"t1621","Palabra"
"t1622","Palabra"
"t1623","Palabra"
"t1624","Palabra"
"t1625","Palabra"
"t1626","Palabra"
"t1627","Palabra"
"t1628","Palabra"
"t1629","Palabra"
"t1630","Palabra"
"t1631","Palabra"
"t1632","Palabra"
"t1633","Palabra"
"t1634","Palabra"
"t1635","Palabra"
"t1636","Palabra"
"t1637","Palabra"
"t1638","Palabra"
"t1639","Palabra"
"t1640","Palabra"
"t1641","Palabra"
"t1642","Palabra"
"t1643","Palabra"
"t1644","Palabra"
"t1645","Palabra"
"t1646","Palabra"
"t1647","Palabra"
"t1648","Palabra"
"t1649","Palabra"
"t1650","Palabra"
"t1651","Palabra"
"t1652","Palabra"
"t1653","Palabra"
"t1654","Palabra"
"t1655","Palabra"
"t1656","Palabra"
"t1657","Palabra"
"t1658","Palabra"
"t1659","Palabra"
"t1660","Palabra"
"t1661","Palabra"
"t1662","Palabra"
"t1663","Palabra"
"t1664","Palabra"
"t1665","Palabra"
"t1666","Palabra"
"t1667","Palabra"
"t1668","Palabra"
"t1669","Palabra"
"t1670","Palabra"
"t1671","Palabra"
"t1672","Palabra"
"t1673","Palabra"
"t1674","Palabra"
"t1675","Palabra"
"t1676","Palabra"
"t1677","Palabra"
"t1678","Palabra"
"t1679","Palabra"
"t1680","Palabra"
"t1681","Palabra"
"t1682","Palabra"
"t1683","Palabra"
"t1684","Palabra"
"t1685","Palabra"
"t1686","Palabra"
"t1687","Palabra"
"t1688","Palabra"
"t1689","Palabra"
"t1690","Palabra"
"t1691","Palabra"
"t1692","Palabra"
"t1693","Palabra"
"t1694","Palabra"
"t1695","Palabra"
"t1696","Palabra"
"t1697","Palabra"
"t1698","Palabra"
"t1699","Palabra"
"t1700","Palabra"
"t1701","Palabra"
"t1702","Palabra"
"t1703","Palabra"
"t1704","Palabra"
"t1705","Palabra"
"t1706","Palabra"
"t1707","Palabra"
"t1708","Palabra"
"t1709","Palabra"
"t1710","Palabra"
"t1711","Palabra"
"t1712","Palabra"
"t1713","Palabra"
"t1714","Palabra"
"t1715","Palabra"
"t1716","Palabra"
"t1717","Palabra"
"t1718","Palabra"
"t1719","Palabra"
"t1720","Palabra"
"t1721","Palabra"
"t1722","Palabra"
"t1723","Palabra"
"t1724","Palabra"
"t1725","Palabra"
"t1726","Palabra"
"t1727","Palabra"
"t1728","Palabra"
"t1729","Palabra"
"t1730","Palabra"
"t1731","Palabra"
"t1732","Palabra"
"t1733","Palabra"
"t1734","Palabra"
"t1735","Palabra"
"t1736","Palabra"
"t1737","Palabra"
"t1738","Palabra"
"t1739","Palabra"
"t1740","Palabra"
"t1741","Palabra"
"t1742","Palabra"
"t1743","Palabra"
"t1744","Palabra"
"t1745","Palabra"
"t1746","Palabra"
"t1747","Palabra"
"t1748","Palabra"
"t1749","Palabra"
"t1750","Palabra"
"t1751","Palabra"
"t1752","Palabra"
"t1753","Palabra"
"t1754","Palabra"
"t1755","Palabra"
"t1756","Palabra"
"t1757","Palabra"
"t1758","Palabra"
"t1759","Palabra"
"t1760","Palabra"
"t1761","Palabra"
"t1762","Palabra"
"t1763","Palabra"
"t1764","Palabra"
"t1765","Palabra"
"t1766","Palabra"
"t1767","Palabra"
"t1768","Palabra"
"t1769","Palabra"
"t1770","Palabra"
"t1771","Palabra"
"t1772","Palabra"
"t1773","Palabra"
"t1774","Palabra"
"t1775","Palabra"
"t1776","Palabra"
"t1777","Palabra"
"t1778","Palabra"
"t1779","Palabra"
"t1780","Palabra"
"t1781","Palabra"
"t1782","Palabra"
"t1783","Palabra"
"t1784","Palabra"
"t1785","Palabra"
"t1786","Palabra"
"t1787","Palabra"
"t1788","Palabra"
"t1789","Palabra"
"t1790","Palabra"
"t1791","Palabra"
"t1792","Palabra"
"t1793","Palabra"
"t1794","Palabra"
"t1795","Palabra"
"t1796","Palabra"
"t1797","Palabra"
"t1798","Palabra"
"t1799","Palabra"
"t1800","Palabra"
"t1801","Palabra"
"t1802","Palabra"
"t1803","Palabra"
"t1804","Palabra"
"t1805","Palabra"
"t1806","Palabra"
"t1807","Palabra"
"t1808","Palabra"
"t1809","Palabra"
"t1810","Palabra"
"t1811","Palabra"
"t1812","Palabra"
"t1813","Palabra"
"t1814","Palabra"
"t1815","Palabra"
"t1816","Palabra"
"t1817","Palabra"
"t1818","Palabra"
"t1819","Palabra"
"t1820","Palabra"
"t1821","Palabra"
"t1822","Palabra"
"t1823","Palabra"
"t1824","Palabra"
"t1825","Palabra"
"t1826","Palabra"
"t1827","Palabra"
"t1828","Palabra"
"t1829","Palabra"
"t1830","Palabra"
"t1831","Palabra"
"t1832","Palabra"
"t1833","Palabra"
"t1834","Palabra"
"t1835","Palabra"
"t1836","Palabra"
"t1837","Palabra"
"t1838","Palabra"
"t1839","Palabra"
"t1840","Palabra"
"t1841","Palabra"
"t1842","Palabra"
"t1843","Palabra"
"t1844","Palabra"
"t1845","Palabra"
"t1846","Palabra"
"t1847","Palabra"
"t1848","Palabra"
"t1849","Palabra"
"t1850","Palabra"
"t1851","Palabra"
"t1852","Palabra"
"t1853","Palabra"
"t1854","Palabra"
"t1855","Palabra"
"t1856","Palabra"
"t1857","Palabra"
"t1858","Palabra"
"t1859","Palabra"
"t1860","Palabra"
"t1861","Palabra"
"t1862","Palabra"
"t1863","Palabra"
"t1864","Palabra"
"t1865","Palabra"
"t1866","Palabra"
"t1867","Palabra"
"t1868","Palabra"
"t1869","Palabra"
"t1870","Palabra"
"t1871","Palabra"
"t1872","Palabra"
"t1873","Palabra"
"t1874","Palabra"
"t1875","Palabra"
"t1876","Palabra"
"t1877","Palabra"
"t1878","Palabra"
"t1879","Palabra"
"t1880","Palabra"
"t1881","Palabra"
"t1882","Palabra"
"t1883","Palabra"
"t1884","Palabra"
"t1885","Palabra"
"t1886","Palabra"
"t1887","Palabra"
"t1888","Palabra"
"t1889","Palabra"
"t1890","Palabra"
"t1891","Palabra"
"t1892","Palabra"
"t1893","Palabra"
"t1894","Palabra"
"t1895","Palabra"
"t1896","Palabra"
"t1897","Palabra"
"t1898","Palabra"
"t1899","Palabra"
"t1900","Palabra"
"t1901","Palabra"
"t1902","Palabra"
"t1903","Palabra"
"t1904","Palabra"
"t1905","Palabra"
"t1906","Palabra"
"t1907","Palabra"
"t1908","Palabra"
"t1909","Palabra"
"t1910","Palabra"
"t1911","Palabra"
"t1912","Palabra"
"t1913","Palabra"
"t1914","Palabra"
"t1915","Palabra"
"t1916","Palabra"
"t1917","Palabra"
"t1918","Palabra"
"t1919","Palabra"
"t1920","Palabra"
"t1921","Palabra"
"t1922","Palabra"
"t1923","Palabra"
"t1924","Palabra"
"t1925","Palabra"
"t1926","Palabra"
"t1927","Palabra"
"t1928","Palabra"
"t1929","Palabra"
"t1930","Palabra"
"t1931","Palabra"
"t1932","Palabra"
"t1933","Palabra"
"t1934","Palabra"
"t1935","Palabra"
"t1936","Palabra"
"t1937","Palabra"
"t1938","Palabra"
"t1939","Palabra"
"t1940","Palabra"
"t1941","Palabra"
"t1942","Palabra"
"t1943","Palabra"
"t1944","Palabra"
"t1945","Palabra"
"t1946","Palabra"
"t1947","Palabra"
"t1948","Palabra"
"t1949","Palabra"
"t1950","Palabra"
"t1951","Palabra"
"t1952","Palabra"
"t1953","Palabra"
"t1954","Palabra"
"t1955","Palabra"
"t1956","Palabra"
"t1957","Palabra"
"t1958","Palabra"
"t1959","Palabra"
"t1960","Palabra"
"t1961","Palabra"
"t1962","Palabra"
"t1963","Palabra"
"t1964","Palabra"
"t1965","Palabra"
"t1966","Palabra"
"t1967","Palabra"
"t1968","Palabra"
"t1969","Palabra"
"t1970","Palabra"
"t1971","Palabra"
"t1972","Palabra"
"t1973","Palabra"
"t1974","Palabra"
"t1975","Palabra"
"t1976","Palabra"
"t1977","Palabra"
"t1978","Palabra"
"t1979","Palabra"
"t1980","Palabra"
"t1981","Palabra"
"t1982","Palabra"
"t1983","Palabra"
"t1984","Palabra"
"t1985","Palabra"
"t1986","Palabra"
"t1987","Palabra"
"t1988","Palabra"
"t1989","Palabra"
"t1990","Palabra"
"t1991","Palabra"
"t1992","Palabra"
"t1993","Palabra"
"t1994","Palabra"
"t1995","Palabra"
"t1996","Palabra"
"t1997","Palabra"
"t1998","Palabra"
"t1999","Palabra"
"t2000","Palabra"
"t2001","Palabra"
"t2002","Palabra"
"t2003","Palabra"
"t2004","Palabra"
"t2005","Palabra"
"t2006","Palabra"
"t2007","Palabra"
"t2008","Palabra"
"t2009","Palabra"
"t2010","Palabra"
"t2011","Palabra"
"t2012","Palabra"
"t2013","Palabra"
"t2014","Palabra"
"t2015","Palabra"
"t2016","Palabra"
"t2017","Palabra"
"t2018","Palabra"
"t2019","Palabra"
"t2020","Palabra"
"t2021","Palabra"
"t2022","Palabra"
"t2023","Palabra"
"t2024","Palabra"
"t2025","Palabra"
"t2026","Palabra"
"t2027","Palabra"
"t2028","Palabra"
"t2029","Palabra"
"t2030","Palabra"
"t2031","Palabra"
"t2032","Palabra"
"t2033","Palabra"
"t2034","Palabra"
"t2035","Palabra"
"t2036","Palabra"
"t2037","Palabra"
"t2038","Palabra"
"t2039","Palabra"
"t2040","Palabra"
"t2041","Palabra"
"t2042","Palabra"
"t2043","Palabra"
"t2044","Palabra"
"t2045","Palabra"
"t2046","Palabra"
"t2047","Palabra"
"t2048","Palabra"
"t2049","Palabra"
"t2050","Palabra"
"t2051","Palabra"
"t2052","Palabra"
"t2053","Palabra"
"t2054","Palabra"
"t2055","Palabra"
"t2056","Palabra"
"t2057","Palabra"
"t2058","Palabra"
"t2059","Palabra"
"t2060","Palabra"
"t2061","Palabra"
"t2062","Palabra"
"t2063","Palabra"
"t2064","Palabra"
"t2065","Palabra"
"t2066","Palabra"
"t2067","Palabra"
"t2068","Palabra"
"t2069","Palabra"
"t2070","Palabra"
"t2071","Palabra"
"t2072","Palabra"
"t2073","Palabra"
"t2074","Palabra"
"t2075","Palabra"
"t2076","Palabra"
"t2077","Palabra"
"t2078","Palabra"
"t2079","Palabra"
"t2080","Palabra"
"t2081","Palabra"
"t2082","Palabra"
"t2083","Palabra"
"t2084","Palabra"
"t2085","Palabra"
"t2086","Palabra"
"t2087","Palabra"
"t2088","Palabra"
"t2089","Palabra"
"t2090","Palabra"
"t2091","Palabra"
"t2092","Palabra"
"t2093","Palabra"
"t2094","Palabra"
"t2095","Palabra"
"t2096","Palabra"
"t2097","Palabra"
"t2098","Palabra"
"t2099","Palabra"
"t2100","Palabra"
"t2101","Palabra"
"t2102","Palabra"
"t2103","Palabra"
"t2104","Palabra"
"t2105","Palabra"
"t2106","Palabra"
"t2107","Palabra"
"t2108","Palabra"
"t2109","Palabra"
"t2110","Palabra"
"t2111","Palabra"
"t2112","Palabra"
"t2113","Palabra"
"t2114","Palabra"
"t2115","Palabra"
"t2116","Palabra"
"t2117","Palabra"
"t2118","Palabra"
"t2119","Palabra"
"t2120","Palabra"
"t2121","Palabra"
"t2122","Palabra"
"t2123","Palabra"
"t2124","Palabra"
"t2125","Palabra"
"t2126","Palabra"
"t2127","Palabra"
"t2128","Palabra"
"t2129","Palabra"
"t2130","Palabra"
"t2131","Palabra"
"t2132","Palabra"
"t2133","Palabra"
"t2134","Palabra"
"t2135","Palabra"
"t2136","Palabra"
"t2137","Palabra"
"t2138","Palabra"
"t2139","Palabra"
"t2140","Palabra"
"t2141","Palabra"
"t2142","Palabra"
"t2143","Palabra"
"t2144","Palabra"
"t2145","Palabra"
"t2146","Palabra"
"t2147","Palabra"
"t2148","Palabra"
"t2149","Palabra"
"t2150","Palabra"
"t2151","Palabra"
"t2152","Palabra"
"t2153","Palabra"
"t2154","Palabra"
"t2155","Palabra"
"t2156","Palabra"
"t2157","Palabra"
"t2158","Palabra"
"t2159","Palabra"
"t2160","Palabra"
"t2161","Palabra"
"t2162","Palabra"
"t2163","Palabra"
"t2164","Palabra"
"t2165","Palabra"
"t2166","Palabra"
"t2167","Palabra"
"t2168","Palabra"
"t2169","Palabra"
"t2170","Palabra"
"t2171","Palabra"
"t2172","Palabra"
"t2173","Palabra"
"t2174","Palabra"
"t2175","Palabra"
"t2176","Palabra"
"t2177","Palabra"
"t2178","Palabra"
"t2179","Palabra"
"t2180","Palabra"
"t2181","Palabra"
"t2182","Palabra"
"t2183","Palabra"
"t2184","Palabra"
"t2185","Palabra"
"t2186","Palabra"
"t2187","Palabra"
"t2188","Palabra"
"t2189","Palabra"
"t2190","Palabra"
"t2191","Palabra"
"t2192","Palabra"
"t2193","Palabra"
"t2194","Palabra"
"t2195","Palabra"
"t2196","Palabra"
"t2197","Palabra"
"t2198","Palabra"
"t2199","Palabra"
"t2200","Palabra"
"t2201","Palabra"
"t2202","Palabra"
"t2203","Palabra"
"t2204","Palabra"
"t2205","Palabra"
"t2206","Palabra"
"t2207","Palabra"
"t2208","Palabra"
"t2209","Palabra"
"t2210","Palabra"
"t2211","Palabra"
"t2212","Palabra"
"t2213","Palabra"
"t2214","Palabra"
"t2215","Palabra"
"t2216","Palabra"
"t2217","Palabra"
"t2218","Palabra"
"t2219","Palabra"
"t2220","Palabra"
"t2221","Palabra"
"t2222","Palabra"
"t2223","Palabra"
"t2224","Palabra"
"t2225","Palabra"
"t2226","Palabra"
"t2227","Palabra"
"t2228","Palabra"
"t2229","Palabra"
"t2230","Palabra"
"t2231","Palabra"
"t2232","Palabra"
"t2233","Palabra"
"t2234","Palabra"
"t2235","Palabra"
"t2236","Palabra"
"t2237","Palabra"
"t2238","Palabra"
"t2239","Palabra"
"t2240","Palabra"
"t2241","Palabra"
"t2242","Palabra"
"t2243","Palabra"
"t2244","Palabra"
"t2245","Palabra"
"t2246","Palabra"
"t2247","Palabra"
"t2248","Palabra"
"t2249","Palabra"
"t2250","Palabra"
"t2251","Palabra"
"t2252","Palabra"
"t2253","Palabra"
"t2254","Palabra"
"t2255","Palabra"
"t2256","Palabra"
"t2257","Palabra"
"t2258","Palabra"
"t2259","Palabra"
"t2260","Palabra"
"t2261","Palabra"
"t2262","Palabra"
"t2263","Palabra"
"t2264","Palabra"
"t2265","Palabra"
"t2266","Palabra"
"t2267","Palabra"
"t2268","Palabra"
"t2269","Palabra"
"t2270","Palabra"
"t2271","Palabra"
"t2272","Palabra"
"t2273","Palabra"
"t2274","Palabra"
"t2275","Palabra"
"t2276","Palabra"
"t2277","Palabra"
"t2278","Palabra"
"t2279","Palabra"
"t2280","Palabra"
"t2281","Palabra"
"t2282","Palabra"
"t2283","Palabra"
"t2284","Palabra"
"t2285","Palabra"
"t2286","Palabra"
"t2287","Palabra"
"t2288","Palabra"
"t2289","Palabra"
"t2290","Palabra"
"t2291","Palabra"
"t2292","Palabra"
"t2293","Palabra"
"t2294","Palabra"
"t2295","Palabra"
"t2296","Palabra"
"t2297","Palabra"
"t2298","Palabra"
"t2299","Palabra"
"t2300","Palabra"
"t2301","Palabra"
"t2302","Palabra"
"t2303","Palabra"
"d1","Documento"
"d2","Documento"
"d3","Documento"
"d4","Documento"
"d5","Documento"
"d6","Documento"
"d7","Documento"
"d8","Documento"
"d9","Documento"
"d10","Documento"
"d11","Documento"
"d12","Documento"
"d13","Documento"
"d14","Documento"
"d15","Documento"
"d16","Documento"
"d17","Documento"
"d18","Documento"
"d19","Documento"
"d20","Documento"
"d21","Documento"
"d22","Documento"
"d23","Documento"
"d24","Documento"
"d25","Documento"
"d26","Documento"
"d27","Documento"
"d28","Documento"
"d29","Documento"
"d30","Documento"
"d31","Documento"
"d32","Documento"
"d33","Documento"
"d34","Documento"
"d35","Documento"
"d36","Documento"
"d37","Documento"
"d38","Documento"
"d39","Documento"
"d40","Documento"
"d41","Documento"
"d42","Documento"
"d43","Documento"
"d44","Documento"
"d45","Documento"
"d46","Documento"
"d47","Documento"
"d48","Documento"
"d49","Documento"
"d50","Documento"
"d51","Documento"
"d52","Documento"
"d53","Documento"
"d54","Documento"
"d55","Documento"
"d56","Documento"
"d57","Documento"
"d58","Documento"
"d59","Documento"
"d60","Documento"
"d61","Documento"
"d62","Documento"
"d63","Documento"
"d64","Documento"
"d65","Documento"
"d66","Documento"
"d67","Documento"
"d68","Documento"
"d69","Documento"
"d70","Documento"
"d71","Documento"
"d72","Documento"
"d73","Documento"
"d74","Documento"
"d75","Documento"
"d76","Documento"
"d77","Documento"
"d78","Documento"
"d79","Documento"
"d80","Documento"
"d81","Documento"
"d82","Documento"
"d83","Documento"
"d84","Documento"
"d85","Documento"
"d86","Documento"
"d87","Documento"
"d88","Documento"
"d89","Documento"
"d90","Documento"
"d91","Documento"
"d92","Documento"
"d93","Documento"
"d94","Documento"
"d95","Documento"
"d96","Documento"
"d97","Documento"
"d98","Documento"
"d99","Documento"
"d100","Documento"
"d101","Documento"
"d102","Documento"
"d103","Documento"
"d104","Documento"
"d105","Documento"
"d106","Documento"
"d107","Documento"
"d108","Documento"
"d109","Documento"
"d110","Documento"
"d111","Documento"
"d112","Documento"
"d113","Documento"
"d114","Documento"
"d115","Documento"
"d116","Documento"
"d117","Documento"
"d118","Documento"
"d119","Documento"
"d120","Documento"
"d121","Documento"
"d122","Documento"
"d123","Documento"
"d124","Documento"
"d125","Documento"
"d126","Documento"
"d127","Documento"
"d128","Documento"
"d129","Documento"
"d130","Documento"
"d131","Documento"
"d132","Documento"
"d133","Documento"
"d134","Documento"
"d135","Documento"
"d136","Documento"
"d137","Documento"
"d138","Documento"
"d139","Documento"
"d140","Documento"
"d141","Documento"
"d142","Documento"
"d143","Documento"
"d144","Documento"
"d145","Documento"
"d146","Documento"
"d147","Documento"
"d148","Documento"
"d149","Documento"
"d150","Documento"
"d151","Documento"
"d152","Documento"
"d153","Documento"
"d154","Documento"
"d155","Documento"
"d156","Documento"
"d157","Documento"
"d158","Documento"
"d159","Documento"
"d160","Documento"
"d161","Documento"
"d162","Documento"
"d163","Documento"
"d164","Documento"
"d165","Documento"
"d166","Documento"
"d167","Documento"
"d168","Documento"
"d169","Documento"
"d170","Documento"
"d171","Documento"
"d172","Documento"
"d173","Documento"
"d174","Documento"
"d175","Documento"
"d176","Documento"
"d177","Documento"
"d178","Documento"
"d179","Documento"
"d180","Documento"
"d181","Documento"
"d182","Documento"
"d183","Documento"
"d184","Documento"
"d185","Documento"
"d186","Documento"
"d187","Documento"
"d188","Documento"
"d189","Documento"
"d190","Documento"
"d191","Documento"
"d192","Documento"
"d193","Documento"
"d194","Documento"
"d195","Documento"
"d196","Documento"
"d197","Documento"
"d198","Documento"
"d199","Documento"
"d200","Documento"
"d201","Documento"
"d202","Documento"
"d203","Documento"
"d204","Documento"
"d205","Documento"
"d206","Documento"
"d207","Documento"
"d208","Documento"
"d209","Documento"
"d210","Documento"
"d211","Documento"
"d212","Documento"
"d213","Documento"
"d214","Documento"
"d215","Documento"
"d216","Documento"
"d217","Documento"
"d218","Documento"
"d219","Documento"
"d220","Documento"
"d221","Documento"
"d222","Documento"
"d223","Documento"
"d224","Documento"
"d225","Documento"
"d226","Documento"
"d227","Documento"
"d228","Documento"
"d229","Documento"
"d230","Documento"
"d231","Documento"
"d232","Documento"
"d233","Documento"
"d234","Documento"
"d235","Documento"
"d236","Documento"
"d237","Documento"
"d238","Documento"
"d239","Documento"
"d240","Documento"
"d241","Documento"
"d242","Documento"
"d243","Documento"
"d244","Documento"
"d245","Documento"
"d246","Documento"
"d247","Documento"
"d248","Documento"
"d249","Documento"
"d250","Documento"
"d251","Documento"
"d252","Documento"
"d253","Documento"
"d254","Documento"
"d255","Documento"
"d256","Documento"
"d257","Documento"
"d258","Documento"
"d259","Documento"
"d260","Documento"
"d261","Documento"
"d262","Documento"
"d263","Documento"
"d264","Documento"
"d265","Documento"
"d266","Documento"
"d267","Documento"
"d268","Documento"
"d269","Documento"
"d270","Documento"
"d271","Documento"
"d272","Documento"
"d273","Documento"
"d274","Documento"
"d275","Documento"
"d276","Documento"
"d277","Documento"
"d278","Documento"
"d279","Documento"
"d280","Documento"
"d281","Documento"
"d282","Documento"
"d283","Documento"
"d284","Documento"
"d285","Documento"
"d286","Documento"
"d287","Documento"
"d288","Documento"
"d289","Documento"
"d290","Documento"
"d291","Documento"
"d292","Documento"
"d293","Documento"
"d294","Documento"
"d295","Documento"
"d296","Documento"
"d297","Documento"
"d298","Documento"
"d299","Documento"
"d300","Documento"
"d301","Documento"
"d302","Documento"
"d303","Documento"
"d304","Documento"
"d305","Documento"
"d306","Documento"
"d307","Documento"
"d308","Documento"
"d309","Documento"
"d310","Documento"
"d311","Documento"
"d312","Documento"
"d313","Documento"
"d314","Documento"
"d315","Documento"
"d316","Documento"
"d317","Documento"
"d318","Documento"
"d319","Documento"
"d320","Documento"
"d321","Documento"
"d322","Documento"
"d323","Documento"
"d324","Documento"
"d325","Documento"
"d326","Documento"
"d327","Documento"
"d328","Documento"
"d329","Documento"
"d330","Documento"
"d331","Documento"
"d332","Documento"
"d333","Documento"
"d334","Documento"
"d335","Documento"
"d336","Documento"
"d337","Documento"
"d338","Documento"
"d339","Documento"
"d340","Documento"
"d341","Documento"
"d342","Documento"
"d343","Documento"
"d344","Documento"
"d345","Documento"
"d346","Documento"
"d347","Documento"
"d348","Documento"
"d349","Documento"
"d350","Documento"
"d351","Documento"
"d352","Documento"
"d353","Documento"
"d354","Documento"
"d355","Documento"
"d356","Documento"
"d357","Documento"
"d358","Documento"
"d359","Documento"
"d360","Documento"
"d361","Documento"
"d362","Documento"
"d363","Documento"
"d364","Documento"
"d365","Documento"
"d366","Documento"
"d367","Documento"
"d368","Documento"
"d369","Documento"
"d370","Documento"
"d371","Documento"
"d372","Documento"
"d373","Documento"
"d374","Documento"
"d375","Documento"
"d376","Documento"
"d377","Documento"
"d378","Documento"
"d379","Documento"
"d380","Documento"
"d381","Documento"
"d382","Documento"
"d383","Documento"
"d384","Documento"
"d385","Documento"
"d386","Documento"
"d387","Documento"
"d388","Documento"
"d389","Documento"
"d390","Documento"
"d391","Documento"
"d392","Documento"
"d393","Documento"
"d394","Documento"
"d395","Documento"
"d396","Documento"
"d397","Documento"
"d398","Documento"
"d399","Documento"
"d400","Documento"
"d401","Documento"
"d402","Documento"
"d403","Documento"
"d404","Documento"
"d405","Documento"
"d406","Documento"
"d407","Documento"
"d408","Documento"
"d409","Documento"
"d410","Documento"
"d411","Documento"
"d412","Documento"
"d413","Documento"
"d414","Documento"
"d415","Documento"
"d416","Documento"
"d417","Documento"
"d418","Documento"
"d419","Documento"
"d420","Documento"
"d421","Documento"
"d422","Documento"
"d423","Documento"
"d424","Documento"
"d425","Documento"
"d426","Documento"
"d427","Documento"
"d428","Documento"
"d429","Documento"
"d430","Documento"
"d431","Documento"
"d432","Documento"
"d433","Documento"
"d434","Documento"
"d435","Documento"
"d436","Documento"
"d437","Documento"
"d438","Documento"
"d439","Documento"
"d440","Documento"
"d441","Documento"
"d442","Documento"
"d443","Documento"
"d444","Documento"
"d445","Documento"
"d446","Documento"
"d447","Documento"
"d448","Documento"
"d449","Documento"
"d450","Documento"
"d451","Documento"
"d452","Documento"
"d453","Documento"
"d454","Documento"
"d455","Documento"
"d456","Documento"
"d457","Documento"
"d458","Documento"
"d459","Documento"
"d460","Documento"
"d461","Documento"
"d462","Documento"
"d463","Documento"
"d464","Documento"
"d465","Documento"
"d466","Documento"
"d467","Documento"
"d468","Documento"
"d469","Documento"
"d470","Documento"
"d471","Documento"
"d472","Documento"
"d473","Documento"
"d474","Documento"
"d475","Documento"
"d476","Documento"
"d477","Documento"
"d478","Documento"
"d479","Documento"
"d480","Documento"
"d481","Documento"
"d482","Documento"
"d483","Documento"
"d484","Documento"
"d485","Documento"
"d486","Documento"
"d487","Documento"
"d488","Documento"
"d489","Documento"
"d490","Documento"
"d491","Documento"
"d492","Documento"
"d493","Documento"
"d494","Documento"
"d495","Documento"
"d496","Documento"
"d497","Documento"
"d498","Documento"
"d499","Documento"
"d500","Documento"
"d501","Documento"
"d502","Documento"
"d503","Documento"
"d504","Documento"
"d505","Documento"
"d506","Documento"
"d507","Documento"
"d508","Documento"
"d509","Documento"
"d510","Documento"
"d511","Documento"
"d512","Documento"
"d513","Documento"
"d514","Documento"
"d515","Documento"
"d516","Documento"
"d517","Documento"
"d518","Documento"
"d519","Documento"
"d520","Documento"
"d521","Documento"
"d522","Documento"
"d523","Documento"
"d524","Documento"
"d525","Documento"
"d526","Documento"
"d527","Documento"
"d528","Documento"
"d529","Documento"
"d530","Documento"
"d531","Documento"
"d532","Documento"
"d533","Documento"
"d534","Documento"
"d535","Documento"
"d536","Documento"
"d537","Documento"
"d538","Documento"
"d539","Documento"
"d540","Documento"
"d541","Documento"
"d542","Documento"
"d543","Documento"
"d544","Documento"
"d545","Documento"
"d546","Documento"
"d547","Documento"
"d548","Documento"
"d549","Documento"
"d550","Documento"
"d551","Documento"
"d552","Documento"
"d553","Documento"
"d554","Documento"
"d555","Documento"
"d556","Documento"
"d557","Documento"
"d558","Documento"
"d559","Documento"
"d560","Documento"
"d561","Documento"
"d562","Documento"
"d563","Documento"
"d564","Documento"
"d565","Documento"
"d566","Documento"
"d567","Documento"
"d568","Documento"
"d569","Documento"
"d570","Documento"
"d571","Documento"
"d572","Documento"
"d573","Documento"
"d574","Documento"
"d575","Documento"
"d576","Documento"
"d577","Documento"
"d578","Documento"
"d579","Documento"
"d580","Documento"
"d581","Documento"
"d582","Documento"
"d583","Documento"
"d584","Documento"
"d585","Documento"
"d586","Documento"
"d587","Documento"
"d588","Documento"
"d589","Documento"
"d590","Documento"
"d591","Documento"
"d592","Documento"
"d593","Documento"
"d594","Documento"
"d595","Documento"
"d596","Documento"
"d597","Documento"
"d598","Documento"
"d599","Documento"
"d600","Documento"
"d601","Documento"
"d602","Documento"
"d603","Documento"
"d604","Documento"
"d605","Documento"
"d606","Documento"
"d607","Documento"
"d608","Documento"
"d609","Documento"
"d610","Documento"
"d611","Documento"
"d612","Documento"
"d613","Documento"
"d614","Documento"
"d615","Documento"
"d616","Documento"
"d617","Documento"
"d618","Documento"
"d619","Documento"
"d620","Documento"
"d621","Documento"
"d622","Documento"
"d623","Documento"
"d624","Documento"
"d625","Documento"
"d626","Documento"
"d627","Documento"
"d628","Documento"
"d629","Documento"
"d630","Documento"
"d631","Documento"
"d632","Documento"
"d633","Documento"
"d634","Documento"
"d635","Documento"
"d636","Documento"
"d637","Documento"
"d638","Documento"
"d639","Documento"
"d640","Documento"
"d641","Documento"
"d642","Documento"
"d643","Documento"
"d644","Documento"
"d645","Documento"
"d646","Documento"
"d647","Documento"
"d648","Documento"
"d649","Documento"
"d650","Documento"
"d651","Documento"
"d652","Documento"
"d653","Documento"
"d654","Documento"
"d655","Documento"
"d656","Documento"
"d657","Documento"
"d658","Documento"
"d659","Documento"
"d660","Documento"
"d661","Documento"
"d662","Documento"
"d663","Documento"
"d664","Documento"
"d665","Documento"
"d666","Documento"
"d667","Documento"
"d668","Documento"
"d669","Documento"
"d670","Documento"
"d671","Documento"
"d672","Documento"
"d673","Documento"
"d674","Documento"
"d675","Documento"
"d676","Documento"
"d677","Documento"
"d678","Documento"
"d679","Documento"
"d680","Documento"
"d681","Documento"
"d682","Documento"
"d683","Documento"
"d684","Documento"
"d685","Documento"
"d686","Documento"
"d687","Documento"
"d688","Documento"
"d689","Documento"
"d690","Documento"
"d691","Documento"
"d692","Documento"
"d693","Documento"
"d694","Documento"
"d695","Documento"
"d696","Documento"
"d697","Documento"
"d698","Documento"
"d699","Documento"
"d700","Documento"
"d701","Documento"
"d702","Documento"
"d703","Documento"
"d704","Documento"
"d705","Documento"
"d706","Documento"
"d707","Documento"
"d708","Documento"
"d709","Documento"
"d710","Documento"
"d711","Documento"
"d712","Documento"
"d713","Documento"
"d714","Documento"
"d715","Documento"
"d716","Documento"
"d717","Documento"
"d718","Documento"
"d719","Documento"
"d720","Documento"
"d721","Documento"
"d722","Documento"
"d723","Documento"
"d724","Documento"
"d725","Documento"
"d726","Documento"
"d727","Documento"
"d728","Documento"
"d729","Documento"
"d730","Documento"
"d731","Documento"
"d732","Documento"
"d733","Documento"
"d734","Documento"
"d735","Documento"
"d736","Documento"
"d737","Documento"
"d738","Documento"
"d739","Documento"
"d740","Documento"
"d741","Documento"
"d742","Documento"
"d743","Documento"
"d744","Documento"
"d745","Documento"
"d746","Documento"
"d747","Documento"
"d748","Documento"
"d749","Documento"
"d750","Documento"
"d751","Documento"
"d752","Documento"
"d753","Documento"
"d754","Documento"
"d755","Documento"
"d756","Documento"
"d757","Documento"
"d758","Documento"
"d759","Documento"
"d760","Documento"
"d761","Documento"
"d762","Documento"
"d763","Documento"
"d764","Documento"
"d765","Documento"
"d766","Documento"
"d767","Documento"
"d768","Documento"
"d769","Documento"
"d770","Documento"
"d771","Documento"
"d772","Documento"
"d773","Documento"
"d774","Documento"
"d775","Documento"
"d776","Documento"
"d777","Documento"
"d778","Documento"
"d779","Documento"
"d780","Documento"
"d781","Documento"
"d782","Documento"
"d783","Documento"
"d784","Documento"
"d785","Documento"
"d786","Documento"
"d787","Documento"
"d788","Documento"
"d789","Documento"
"d790","Documento"
"d791","Documento"
"d792","Documento"
"d793","Documento"
"d794","Documento"
"d795","Documento"
"d796","Documento"
"d797","Documento"
"d798","Documento"
"d799","Documento"
"d800","Documento"
"d801","Documento"
"d802","Documento"
"d803","Documento"
"d804","Documento"
"d805","Documento"
"d806","Documento"
"d807","Documento"
"d808","Documento"
"d809","Documento"
"d810","Documento"
"d811","Documento"
"d812","Documento"
"d813","Documento"
"d814","Documento"
"d815","Documento"
"d816","Documento"
"d817","Documento"
"d818","Documento"
"d819","Documento"
"d820","Documento"
"d821","Documento"
"d822","Documento"
"d823","Documento"
"d824","Documento"
"d825","Documento"
"d826","Documento"
"d827","Documento"
"d828","Documento"
"d829","Documento"
"d830","Documento"
"d831","Documento"
"d832","Documento"
"d833","Documento"
"d834","Documento"
"d835","Documento"
"d836","Documento"
"d837","Documento"
"d838","Documento"
"d839","Documento"
"d840","Documento"
